<?xml version="1.0" encoding="utf-8"?>
<!-- Generator: Avocode 0.4.0 - http://avocode.com -->
<svg height="NaN" width="NaN" xmlns:xlink="http://www.w3.org/1999/xlink" xmlns="http://www.w3.org/2000/svg" viewBox="0 0 NaN NaN">
    <image xlink:href="data:image/png;base64,iVBORw0KGgoAAAANSUhEUgAAAAEAAAABCAQAAAC1HAwCAAAAC0lEQVQYV2NgYAAAAAMAAWgmWQ0AAAAASUVORK5CYII=" height="13" width="8" y="0" x="0" />
</svg>