<svg xmlns="http://www.w3.org/2000/svg" width="20" height="20" viewBox="0 0 20 20">
  <path fill="#000000" d="M649.71875,622.890625 C649.71875,622.647568 649.640626,622.447917 649.484375,622.291667 L648.299479,621.119792 C648.134548,620.95486 647.939237,620.872396 647.713542,620.872396 C647.487846,620.872396 647.292536,620.95486 647.127604,621.119792 L641.815104,626.419271 L638.872396,623.476562 C638.707464,623.311631 638.512154,623.229167 638.286458,623.229167 C638.060763,623.229167 637.865452,623.311631 637.700521,623.476562 L636.515625,624.648438 C636.359374,624.804688 636.28125,625.004339 636.28125,625.247396 C636.28125,625.481772 636.359374,625.677083 636.515625,625.833333 L641.229167,630.546875 C641.394098,630.711806 641.589409,630.794271 641.815104,630.794271 C642.04948,630.794271 642.249131,630.711806 642.414062,630.546875 L649.484375,623.476562 C649.640626,623.320312 649.71875,623.125001 649.71875,622.890625 Z M653,625 C653,626.814245 652.552956,628.487406 651.658854,630.019531 C650.764752,631.551657 649.551657,632.764752 648.019531,633.658854 C646.487406,634.552956 644.814245,635 643,635 C641.185755,635 639.512594,634.552956 637.980469,633.658854 C636.448343,632.764752 635.235248,631.551657 634.341146,630.019531 C633.447044,628.487406 633,626.814245 633,625 C633,623.185755 633.447044,621.512594 634.341146,619.980469 C635.235248,618.448343 636.448343,617.235248 637.980469,616.341146 C639.512594,615.447044 641.185755,615 643,615 C644.814245,615 646.487406,615.447044 648.019531,616.341146 C649.551657,617.235248 650.764752,618.448343 651.658854,619.980469 C652.552956,621.512594 653,623.185755 653,625 Z" transform="translate(-633 -615)"/>
</svg>
