<svg xmlns="http://www.w3.org/2000/svg" width="16" height="16" viewBox="0 0 16 16">
  <polygon fill="#000000" points="660 439.476 653.524 433 652 434.524 658.476 441 652 447.476 653.524 449 660 442.524 666.476 449 668 447.476 661.524 441 668 434.524 666.476 433" transform="translate(-652 -433)"/>
</svg>
