<svg xmlns="http://www.w3.org/2000/svg" width="22" height="22" viewBox="0 0 22 22">
  <path fill="#000000" d="M582,778.001387 C582,776.343767 583.343081,775 585.001387,775 L600.998613,775 C602.656233,775 604,776.343081 604,778.001387 L604,793.998613 C604,795.656233 602.656919,797 600.998613,797 L585.001387,797 C583.343767,797 582,795.656919 582,793.998613 L582,778.001387 Z M583,778.001387 L583,793.998613 C583,795.104362 583.895779,796 585.001387,796 L600.998613,796 C602.104362,796 603,795.104221 603,793.998613 L603,778.001387 C603,776.895638 602.104221,776 600.998613,776 L585.001387,776 C583.895638,776 583,776.895779 583,778.001387 Z M599,783.022727 L599,789.977273 C599,790.258524 598.89509,790.499289 598.685268,790.699574 C598.475445,790.899859 598.223216,791 597.928571,791 L588.071429,791 C587.776784,791 587.524555,790.899859 587.314732,790.699574 C587.10491,790.499289 587,790.258524 587,789.977273 L587,783.022727 C587,782.741476 587.10491,782.500711 587.314732,782.300426 C587.524555,782.100141 587.776784,782 588.071429,782 L597.928571,782 C598.223216,782 598.475445,782.100141 598.685268,782.300426 C598.89509,782.500711 599,782.741476 599,783.022727 Z M598.142857,783.259233 L598.142857,783.102628 C598.142857,783.083452 598.141741,783.055753 598.139509,783.019531 C598.137277,782.983309 598.13058,782.956676 598.11942,782.939631 C598.108259,782.922585 598.095982,782.903409 598.082589,782.882102 C598.069196,782.860795 598.049107,782.844815 598.022321,782.834162 C597.995536,782.823508 597.964286,782.818182 597.928571,782.818182 L588.071429,782.818182 C588.013393,782.818182 587.96317,782.838423 587.920759,782.878906 C587.878348,782.919389 587.857143,782.967329 587.857143,783.022727 C587.857143,783.73864 588.185265,784.343748 588.841518,784.838068 C589.703129,785.485799 590.59821,786.161218 591.526786,786.864347 C591.553572,786.885654 591.631696,786.948508 591.761161,787.052912 C591.890626,787.157316 591.993303,787.237216 592.069196,787.292614 C592.14509,787.348012 592.244419,787.415127 592.367188,787.493963 C592.489956,787.572799 592.602678,787.631392 592.705357,787.669744 C592.808036,787.708097 592.904017,787.727273 592.993304,787.727273 L593.006696,787.727273 C593.095983,787.727273 593.191964,787.708097 593.294643,787.669744 C593.397322,787.631392 593.510044,787.572799 593.632812,787.493963 C593.755581,787.415127 593.85491,787.348012 593.930804,787.292614 C594.006697,787.237216 594.109374,787.157316 594.238839,787.052912 C594.368304,786.948508 594.446428,786.885654 594.473214,786.864347 C595.40179,786.161218 596.296871,785.485799 597.158482,784.838068 C597.399555,784.654829 597.623883,784.408737 597.831473,784.099787 C598.039064,783.790837 598.142857,783.510655 598.142857,783.259233 Z M598.142857,789.977273 L598.142857,785.068182 C597.999999,785.221592 597.845983,785.362215 597.680804,785.490057 C596.484369,786.367902 595.533486,787.088065 594.828125,787.650568 C594.600445,787.833808 594.415179,787.976562 594.272321,788.078835 C594.129464,788.181108 593.936385,788.284446 593.69308,788.388849 C593.449776,788.493253 593.220983,788.545455 593.006696,788.545455 L592.993304,788.545455 C592.779017,788.545455 592.550224,788.493253 592.30692,788.388849 C592.063615,788.284446 591.870536,788.181108 591.727679,788.078835 C591.584821,787.976562 591.399555,787.833808 591.171875,787.650568 C590.466514,787.088065 589.515631,786.367902 588.319196,785.490057 C588.154017,785.362215 588.000001,785.221592 587.857143,785.068182 L587.857143,789.977273 C587.857143,790.032671 587.878348,790.080611 587.920759,790.121094 C587.96317,790.161577 588.013393,790.181818 588.071429,790.181818 L597.928571,790.181818 C597.986607,790.181818 598.03683,790.161577 598.079241,790.121094 C598.121652,790.080611 598.142857,790.032671 598.142857,789.977273 Z" transform="translate(-582 -775)"/>
</svg>
