<svg xmlns="http://www.w3.org/2000/svg" width="18" height="19" viewBox="0 0 18 19">
  <path d="M711,713 L709,713 L709,724 C709,725.104569 708.104569,726 707,726 L697,726 C695.895431,726 695,725.104569 695,724 L695,713 L693,713 L693,711 L697,711 L697,710 L697,710 C697,708.343146 698.343146,707 700,707 L704,707 L704,707 C705.656854,707 707,708.343146 707,710 L707,711 L711,711 L711,713 Z M707,713 L697,713 L697,724 L707,724 L707,713 Z M698.944602,711 L705.055398,711 L705.055398,709 L699,709 L698.944602,711 Z M698,715 L700,715 L700,722 L698,722 L698,715 Z M701,715 L703,715 L703,722 L701,722 L701,715 Z M704,715 L706,715 L706,722 L704,722 L704,715 Z" transform="translate(-693 -707)"/>
</svg>
